{
    "meta": {
        "section": "GROUP-4",
        "type": "norm-class",
        "revision": "Revision 2.2",
        "effective-date": "Aug 16, 2024",
        "contributor": "PlanSync Admin :)",
        "isTimetableUpdating": false
    },
    "data": {
        "monday": [
            {
                "time": "09:00 - 10:00",
                "subject": "DS  ",
                "room": "CL-A-07"
            },
            {
                "time": "10:00 - 11:00",
                "subject": "PS",
                "room": "CL-A-15"
            },
            {
                "time": "11:00 - 12:00",
                "subject": "SS",
                "room": "CL-A-15"
            },
            {
                "time": "12:00 - 13:00",
                "subject": "EC",
                "room": "CL-A-15"
            },
            {
                "time": "13:00 - 14:00",
                "subject": "SNTW",
                "room": "CL-A-15"
            }
        ],
        "tuesday": [
            {
                "time": "09:00 - 10:00",
                "subject": "CSA",
                "room": "CL-A-15"
            },
            {
                "time": "10:00 - 11:00",
                "subject": "SS",
                "room": "CL-A-15"
            },
            {
                "time": "11:00 - 12:00",
                "subject": "DS ",
                "room": "CL-A-13"
            },
            {
                "time": "12:00 - 13:00",
                "subject": "EC",
                "room": "CL-A-15"
            },
            {
                "time": "13:00 - 14:00",
                "subject": "PS",
                "room": "CL-A-15"
            }
        ],
        "wednesday": [
            {
                "time": "11:00 - 12:00",
                "subject": "EC",
                "room": "CL-A-15"
            },
            {
                "time": "12:00 - 13:00",
                "subject": "SS",
                "room": "CL-A-15"
            },
            {
                "time": "15:00 - 16:00",
                "subject": "SNTW",
                "room": "CL-A-15"
            },
            {
                "time": "16:00 - 17:00",
                "subject": "DS ",
                "room": "CL-A-07"
            },
            {
                "time": "09:00 - 11:00",
                "subject": "DS_LAB",
                "room": "DSA Lab"
            }
        ],
        "thursday": [
            {
                "time": "09:00 - 10:00",
                "subject": "PS",
                "room": "CL-A-15"
            },
            {
                "time": "10:00 - 11:00",
                "subject": "CSA",
                "room": "CL-A-15"
            },
            {
                "time": "11:00 - 13:00",
                "subject": "SP_LAB",
                "room": "DSP Lab"
            },
            {
                "time": "15:00 - 17:00",
                "subject": "VE",
                "room": "CL-A-15"
            }
        ],
        "friday": [
            {
                "time": "09:00 - 10:00",
                "subject": "CSA",
                "room": "CL-A-15"
            },
            {
                "time": "10:00 - 11:00",
                "subject": "DS ",
                "room": "CL-13"
            },
            {
                "time": "11:00 - 12:00",
                "subject": "EC",
                "room": "CL-A-15"
            },
            {
                "time": "12:00 - 13:00",
                "subject": "PS",
                "room": "CL-A-15"
            },
            {
                "time": "15:00 - 17:00",
                "subject": "VE",
                "room": "CL-A-15"
            }
        ]
    }
}