{
    "meta": {
        "section": "CSE-6",
        "type": "norm-class",
        "revision": "Revision 1.01",
        "effective-date": "Dec 8, 2024",
        "contributor": "PlanSync Admin :)",
        "isTimetableUpdating": false
    },
    "data": {
        "tuesday": [
            {
                "time": "08:00 - 09:00",
                "subject": "OOPJ",
                "room": "C-LH-002"
            },
            {
                "time": "09:00 - 10:00",
                "subject": "DBMS(L)",
                "room": "C-WL-102"
            },
            {
                "time": "10:00 - 11:00",
                "subject": "DBMS(L)",
                "room": "C-WL-102"
            },
            {
                "time": "11:00 - 12:00",
                "subject": "DM",
                "room": "C-LH-001"
            },
            {
                "time": "12:00 - 13:00",
                "subject": "ED|IOC|OB",
                "room": "C-LH-001"
            },
            {
                "time": "13:00 - 14:00",
                "subject": "OS",
                "room": "C-LH-001"
            }
        ],
        "wednesday": [
            {
                "time": "08:00 - 09:00",
                "subject": "ED|IOC|OB",
                "room": "C-LH-301"
            },
            {
                "time": "09:00 - 10:00",
                "subject": "COA",
                "room": "C-LH-301"
            },
            {
                "time": "10:00 - 11:00",
                "subject": "DM",
                "room": "C-LH-301"
            },
            {
                "time": "11:00 - 12:00",
                "subject": "DBMS",
                "room": "C-WL-102"
            },
            {
                "time": "12:00 - 13:00",
                "subject": "OS(L)",
                "room": "C-WL-102"
            },
            {
                "time": "13:00 - 14:00",
                "subject": "OS(L)",
                "room": "C-WL-102"
            }
        ],
        "thursday": [
            {
                "time": "08:00 - 09:00",
                "subject": "DM",
                "room": "C-LH-001"
            },
            {
                "time": "09:00 - 10:00",
                "subject": "COA",
                "room": "C-LH-001"
            },
            {
                "time": "10:00 - 11:00",
                "subject": "DBMS",
                "room": "C-LH-001"
            },
            {
                "time": "12:00 - 13:00",
                "subject": "VT(L)",
                "room": "---"
            },
            {
                "time": "13:00 - 14:00",
                "subject": "VT(L)",
                "room": "---"
            }
        ],
        "friday": [
            {
                "time": "08:00 - 09:00",
                "subject": "OS",
                "room": "C-LH-403"
            },
            {
                "time": "09:00 - 10:00",
                "subject": "DBMS",
                "room": "C-LH-403"
            },
            {
                "time": "10:00 - 11:00",
                "subject": "COA",
                "room": "C-LH-403"
            },
            {
                "time": "11:00 - 12:00",
                "subject": "DM",
                "room": "C-LH-301"
            },
            {
                "time": "12:00 - 13:00",
                "subject": "OOPJ",
                "room": "C-LH-301"
            },
            {
                "time": "13:00 - 14:00",
                "subject": "ED|IOC|OB",
                "room": "C-LH-301"
            }
        ],
        "saturday": [
            {
                "time": "09:00 - 10:00",
                "subject": "COA",
                "room": "C-LH-302"
            },
            {
                "time": "10:00 - 11:00",
                "subject": "OS",
                "room": "C-LH-302"
            },
            {
                "time": "14:00 - 15:00",
                "subject": "OOPJ(L)",
                "room": "C-WL-102"
            },
            {
                "time": "15:00 - 16:00",
                "subject": "OOPJ(L)",
                "room": "C-WL-102"
            },
            {
                "time": "16:00 - 17:00",
                "subject": "OOPJ",
                "room": "C-LH-405"
            }
        ]
    }
}