{
    "meta": {
        "section": "b10",
        "type": "norm-class",
        "revision": "Revision 1.0",
        "effective-date": "Oct 1, 2023",
        "contributor": "Mohammad Sahil",
        "isTimetableUpdating": false
    },
    "data": {
        "monday": [
            {
                "time": "08:00 - 09:00",
                "subject": "Eng.",
                "room": "407"
            },
            {
                "time": "09:00 - 10:00",
                "subject": "DE & LA",
                "room": "407"
            },
            {
                "time": "10:00 - 11:00",
                "subject": "Chem",
                "room": "407"
            },
            {
                "time": "11:00 - 12:00",
                "subject": "***",
                "room": "407"
            },
            {
                "time": "12:00 - 14:00",
                "subject": "Comm. Lab",
                "room": "407"
            }
        ],
        "tuesday": [
            {
                "time": "08:00 - 10:00",
                "subject": "Chem. Lab",
                "room": "202"
            },
            {
                "time": "10:00 - 11:00",
                "subject": "***.",
                "room": "202"
            },
            {
                "time": "11:00 - 12:00",
                "subject": "Chem.",
                "room": "202"
            },
            {
                "time": "12:10 - 13:10",
                "subject": "DE & LA",
                "room": "202"
            },
            {
                "time": "13:20 - 14:20",
                "subject": "Electives",
                "room": "202"
            },
            {
                "time": "17:00 - 18:00",
                "subject": "YHC(P)",
                "room": "202"
            }
        ],
        "wednesday": [
            {
                "time": "08:00 - 09:00",
                "subject": "DE & LA",
                "room": "501"
            },
            {
                "time": "09:00 - 10:00",
                "subject": "YHC.",
                "room": "501"
            },
            {
                "time": "10:00 - 11:00",
                "subject": "***",
                "room": "501"
            },
            {
                "time": "11:00 - 12:00",
                "subject": "B.Etc.",
                "room": "501"
            },
            {
                "time": "12:00 - 13:00",
                "subject": "BEE",
                "room": "501"
            },
            {
                "time": "13:00 - 14:00",
                "subject": "Eng.",
                "room": "501"
            }
        ],
        "thursday": [
            {
                "time": "08:00 - 10:00",
                "subject": "Workshop Pr.",
                "room": "103"
            },
            {
                "time": "10:00 - 11:00",
                "subject": "***",
                "room": "103"
            },
            {
                "time": "11:00 - 12:00",
                "subject": "B.Etc.",
                "room": "103"
            },
            {
                "time": "12:00 - 13:20",
                "subject": "***",
                "room": "103"
            },
            {
                "time": "13:20 - 14:20",
                "subject": "Electives",
                "room": "103"
            }
        ],
        "friday": [
            {
                "time": "08:00 - 10:00",
                "subject": "Engg. Lab",
                "room": "102"
            },
            {
                "time": "10:00 - 11:00",
                "subject": "***",
                "room": "102"
            },
            {
                "time": "11:00 - 12:00",
                "subject": "Chem.",
                "room": "102"
            },
            {
                "time": "12:00 - 13:00",
                "subject": "DE & LA",
                "room": "102"
            },
            {
                "time": "13:00 - 14:00",
                "subject": "BEE",
                "room": "102"
            }
        ]
    }
}