{
    "meta": {
        "section": "b17",
        "type": "norm-class",
        "revision": "Revision 1.0",
        "effective-date": "Aug 31, 2023",
        "contributor": "Kamalesh",
        "isTimetableUpdating": false
    },
    "data": {
        "monday": [
            {
                "time": "08:20 - 09:20",
                "subject": "BEE",
                "room": "306"
            },
            {
                "time": "09:20 - 10:20",
                "subject": "Chem.",
                "room": "306"
            },
            {
                "time": "10:20 - 11:20",
                "subject": "YHC",
                "room": "306"
            },
            {
                "time": "11:20 - 12:00",
                "subject": "***",
                "room": "306"
            },
            {
                "time": "12:00 - 13:00",
                "subject": "Workshop Practical",
                "room": "306"
            },
            {
                "time": "13:00 - 14:00",
                "subject": "Workshop Practical",
                "room": "306"
            }
        ],
        "tuesday": [
            {
                "time": "08:00 - 09:00",
                "subject": "Electives",
                "room": "306"
            },
            {
                "time": "09:20 - 10:20",
                "subject": "DE & LA.",
                "room": "306"
            },
            {
                "time": "10:20 - 11:20",
                "subject": "B.Etc",
                "room": "306"
            },
            {
                "time": "11:20 - 12:00",
                "subject": "***",
                "room": "306"
            },
            {
                "time": "12:00 - 13:00",
                "subject": "Engg. Lab",
                "room": "306"
            },
            {
                "time": "13:00 - 14:00",
                "subject": "Engg. Lab",
                "room": "306"
            }
        ],
        "wednesday": [
            {
                "time": "08:20 - 09:20",
                "subject": "***",
                "room": "307"
            },
            {
                "time": "09:20 - 10:20",
                "subject": "Eng.",
                "room": "307"
            },
            {
                "time": "10:20 - 11:20",
                "subject": "DE & LA",
                "room": "307"
            },
            {
                "time": "11:20 - 12:00",
                "subject": "***",
                "room": "307"
            },
            {
                "time": "12:00 - 13:00",
                "subject": "Chem. Lab",
                "room": "307"
            },
            {
                "time": "13:00 - 14:00",
                "subject": "Chem. Lab",
                "room": "307"
            }
        ],
        "thursday": [
            {
                "time": "08:00 - 09:00",
                "subject": "Electives",
                "room": "303"
            },
            {
                "time": "09:20 - 10:20",
                "subject": "Eng.",
                "room": "303"
            },
            {
                "time": "10:20 - 11:20",
                "subject": "B.Etc",
                "room": "303"
            },
            {
                "time": "11:20 - 12:20",
                "subject": "DE & LA",
                "room": "303"
            },
            {
                "time": "12:20 - 13:20",
                "subject": "Chem",
                "room": "303"
            },
            {
                "time": "13:20 - 14:20",
                "subject": "***",
                "room": "303"
            }
        ],
        "friday": [
            {
                "time": "08:20 - 09:20",
                "subject": "BEE",
                "room": "304"
            },
            {
                "time": "09:20 - 10:20",
                "subject": "Comm. Lab",
                "room": "304"
            },
            {
                "time": "10:20 - 11:20",
                "subject": "Comm. Lab",
                "room": "304"
            },
            {
                "time": "11:20 - 12:20",
                "subject": "Chem",
                "room": "304"
            },
            {
                "time": "12:20 - 13:20",
                "subject": "DE & LA",
                "room": "304"
            },
            {
                "time": "13:20 - 14:20",
                "subject": "***",
                "room": "304"
            }
        ]
    }
}