{
  "meta": {
    "type": "electives",
    "revision": "Revision 1.0",
    "effective-date": "Aug 31, 2023",
    "name": "Electives Configuration for B1 - B31"
  },
  "data": {
    "monday": [
      {
        "subject": "SST4",
        "room": "Room 502"
      },
      {
        "subject": "CIE11",
        "room": "Room 503"
      },
      {
        "subject": "CIE12",
        "room": "Room 504"
      },
      {
        "subject": "SOE9",
        "room": "Room 505"
      },
      {
        "subject": "SOE10",
        "room": "Room 506"
      }
    ],
    "tuesday": [
      {
        "subject": "CIE1",
        "room": "Room 201"
      },
      {
        "subject": "CIE2",
        "room": "Room 202"
      },
      {
        "subject": "CIE3",
        "room": "Room 203"
      },
      {
        "subject": "CIE4",
        "room": "Room 405"
      },
      {
        "subject": "CIE5",
        "room": "Room 405"
      },
      {
        "subject": "SST1",
        "room": "Room 407"
      },
      {
        "subject": "SST2",
        "room": "Room 501"
      },
      {
        "subject": "SOE1",
        "room": "Room 502"
      },
      {
        "subject": "SOE2",
        "room": "Room 503"
      },
      {
        "subject": "SOE3",
        "room": "Room 504"
      },
      {
        "subject": "SOE4",
        "room": "Room 505"
      },
      {
        "subject": "CIE6",
        "room": "Room 304"
      },
      {
        "subject": "CIE7",
        "room": "Room 305"
      },
      {
        "subject": "CIE8",
        "room": "Room 301"
      },
      {
        "subject": "CIE9",
        "room": "Room 306"
      },
      {
        "subject": "CIE10",
        "room": "Room 307"
      },
      {
        "subject": "SST3",
        "room": "Room 401"
      },
      {
        "subject": "SOE5",
        "room": "Room 302"
      },
      {
        "subject": "SOE6",
        "room": "Room 402"
      },
      {
        "subject": "SOE7",
        "room": "Room 404"
      },
      {
        "subject": "SOE8",
        "room": "Room 303"
      }
    ],
    "wednesday": [
      {
        "subject": "CIE11",
        "room": "Room 403"
      },
      {
        "subject": "CIE13",
        "room": "Room 404"
      },
      {
        "subject": "SST4",
        "room": "Room 406"
      },
      {
        "subject": "SOE9",
        "room": "Room 504"
      },
      {
        "subject": "SOE11",
        "room": "Room 505"
      },
      {
        "subject": "SOE12",
        "room": "Room 506"
      },
      {
        "subject": "CIE14",
        "room": "Room 101"
      }
    ],
    "thursday": [
      {
        "subject": "CIE1",
        "room": "Room 101"
      },
      {
        "subject": "CIE2",
        "room": "Room 102"
      },
      {
        "subject": "CIE3",
        "room": "Room 103"
      },
      {
        "subject": "CIE4",
        "room": "Room 405"
      },
      {
        "subject": "CIE5",
        "room": "Room 406"
      },
      {
        "subject": "SST1",
        "room": "Room 407"
      },
      {
        "subject": "SST2",
        "room": "Room 501"
      },
      {
        "subject": "SOE1",
        "room": "Room 502"
      },
      {
        "subject": "SOE2",
        "room": "Room 503"
      },
      {
        "subject": "SOE3",
        "room": "Room 504"
      },
      {
        "subject": "SOE4",
        "room": "Room 505"
      },
      {
        "subject": "CIE6",
        "room": "Room 404"
      },
      {
        "subject": "CIE7",
        "room": "Room 302"
      },
      {
        "subject": "CIE8",
        "room": "Room 306"
      },
      {
        "subject": "CIE9",
        "room": "Room 303"
      },
      {
        "subject": "CIE10",
        "room": "Room 304"
      },
      {
        "subject": "SST3",
        "room": "Room 307"
      },
      {
        "subject": "SOE5",
        "room": "Room 401"
      },
      {
        "subject": "SOE6",
        "room": "Room 305"
      },
      {
        "subject": "SOE7",
        "room": "Room 402"
      },
      {
        "subject": "SOE8",
        "room": "Room 403"
      }
    ],
    "friday": [
      {
        "subject": "CIE12",
        "room": "Room 403"
      },
      {
        "subject": "CIE13",
        "room": "Room 404"
      },
      {
        "subject": "SOE10",
        "room": "Room 503"
      },
      {
        "subject": "SOE11",
        "room": "Room 504"
      },
      {
        "subject": "SOE12",
        "room": "Room 505"
      },
      {
        "subject": "CIE14",
        "room": "Room 506"
      }
    ]
  }
}