{
    "meta": {
        "section": "A32",
        "type": "norm-class",
        "revision": "Revision 1.0",
        "effective-date": "Jan 6, 2025",
        "contributor": "PlanSync Admin :)",
        "isTimetableUpdating": false
    },
    "data": {
        "monday": [
            {
                "time": "11:00 - 12:00",
                "subject": "ENG",
                "room": "LT-01"
            },
            {
                "time": "12:00 - 13:00",
                "subject": "T&NM",
                "room": "LT-01"
            },
            {
                "time": "14:40 - 15:40",
                "subject": "BEtc",
                "room": "LT-01"
            },
            {
                "time": "16:00 - 18:00",
                "subject": "Engg. Lab",
                "room": "Campus 3"
            }
        ],
        "tuesday": [
            {
                "time": "11:00 - 12:00",
                "subject": "ENG",
                "room": "LT-01"
            },
            {
                "time": "12:00 - 13:00",
                "subject": "T&NM",
                "room": "LT-01"
            },
            {
                "time": "14:40 - 15:40",
                "subject": "BEE",
                "room": "LT-01"
            },
            {
                "time": "16:00 - 18:00",
                "subject": "Chem. Lab",
                "room": "Campus 3"
            }
        ],
        "wednesday": [
            {
                "time": "11:00 - 12:00",
                "subject": "CHEM",
                "room": "LT-01"
            },
            {
                "time": "12:00 - 13:00",
                "subject": "BEE",
                "room": "LT-01"
            },
            {
                "time": "14:40 - 15:40",
                "subject": "Electives",
                "room": "See Electives Page"
            },
            {
                "time": "16:00 - 18:00",
                "subject": "SY",
                "room": "Indoor Stadium, Campus 13"
            }
        ],
        "thursday": [
            {
                "time": "11:00 - 12:00",
                "subject": "T&NM",
                "room": "LT-01"
            },
            {
                "time": "12:00 - 13:00",
                "subject": "CHEM",
                "room": "LT-01"
            },
            {
                "time": "14:40 - 15:40",
                "subject": "Electives",
                "room": "See Electives Page"
            },
            {
                "time": "16:00 - 18:00",
                "subject": "Comm. Lab",
                "room": "LT-01"
            }
        ],
        "friday": [
            {
                "time": "11:00 - 12:00",
                "subject": "BEtc",
                "room": "LT-01"
            },
            {
                "time": "12:00 - 13:00",
                "subject": "CHEM",
                "room": "LT-01"
            },
            {
                "time": "14:40 - 15:40",
                "subject": "T&NM",
                "room": "LT-01"
            },
            {
                "time": "16:00 - 18:00",
                "subject": "Workshop",
                "room": "Campus 8"
            }
        ]
    }
}