{
    "meta": {
        "section": "B24",
        "type": "norm-class",
        "revision": "Revision 1.0",
        "effective-date": "Jan 6, 2025",
        "contributor": "PlanSync Admin :)",
        "isTimetableUpdating": false
    },
    "data": {
        "monday": [
            {
                "time": "11:00 - 14:00",
                "subject": "PL(T) & Programming Lab",
                "room": "C-WL-302"
            },
            {
                "time": "15:20 - 16:20",
                "subject": "Electives",
                "room": "See Elective Page"
            },
            {
                "time": "16:40 - 17:40",
                "subject": "T&NM",
                "room": "407"
            }
        ],
        "tuesday": [
            {
                "time": "09:50 - 10:50",
                "subject": "PHY",
                "room": "210"
            },
            {
                "time": "12:20 - 14:20",
                "subject": "ED & Graphics",
                "room": "Campus 3"
            },
            {
                "time": "15:30 - 16:30",
                "subject": "Electives",
                "room": "See Elective Page"
            },
            {
                "time": "16:40 - 17:40",
                "subject": "T&NM",
                "room": "407"
            }
        ],
        "wednesday": [
            {
                "time": "11:00 - 14:00",
                "subject":"PL(T) & Programming Lab",
                "room":"C-WL-302"
            },
            {
                "time": "15:30 - 16:30",
                "subject": "Electives",
                "room": "See Elective Page"
            },
            {
                "time": "16:40 - 17:40",
                "subject": "T&NM",
                "room": "407"
            }
        ],
        "thursday": [
            {
                "time": "11:00 - 12:00",
                "subject": "PHY",
                "room": "105"
            },
            {
                "time": "12:20 - 13:20",
                "subject": "ScLS",
                "room": "105"
            },
            {
                "time": "15:30 - 16:30",
                "subject": "Electives",
                "room": "See Elective Page"
            },
            {
                "time": "16:40 - 17:40",
                "subject": "EVS",
                "room": "407"
            }
        ],
        "friday": [
            {
                "time": "09:50 - 10:50",
                "subject": "T&NM",
                "room": "A11"
            },
            {
                "time": "11:00 - 12:00",
                "subject": "PHY",
                "room": "A11"
            },
            {
                "time": "12:20 - 14:20",
                "subject": "Phy. Lab",
                "room": "Campus 3"
            },
            {
                "time": "15:30 - 16:30",
                "subject": "EVS",
                "room": "407"
            },
            {
                "time": "16:40 - 17:40",
                "subject": "ScLS",
                "room": "407"
            }
        ]
    }
}