{
    "meta": {
        "section": "B4",
        "type": "norm-class",
        "revision": "Revision 1.0",
        "effective-date": "Jan 6, 2025",
        "contributor": "PlanSync Admin :)",
        "isTimetableUpdating": false
    },
    "data": {
        "monday": [
            {
                "time": "08:00 - 11:00",
                "subject": "PL(T) & Programming Lab",
                "room": "A-DL-006"
            },
            {
                "time": "12:30 - 13:30",
                "subject": "Electives",
                "room": "See Elective Page"
            }
        ],
        "tuesday": [
            {
                "time": "08:00 - 9:00",
                "subject": "ScLS",
                "room": "304"
            },
            {
                "time": "09:00 - 10:00",
                "subject": "PHY",
                "room": "304"
            },
            {
                "time": "10:20 - 11:20",
                "subject": "T&NM",
                "room": "304"
            },
            {
                "time": "11:20 - 12:20",
                "subject": "T&NM",
                "room": "304"
            },
            {
                "time": "12:20 - 13:20",
                "subject": "EVS",
                "room": "304"
            },
            {
                "time": "13:30 - 14:30",
                "subject": "Electives",
                "room": "See Elective Page"
            }
        ],
        "wednesday": [
            {
                "time": "08:00 - 11:00",
                "subject": "Phy. Lab",
                "room": "Campus 3"
            },
            {
                "time": "10:20 - 11:20",
                "subject": "PHY",
                "room": "304"
            },
            {
                "time": "11:20 - 12:20",
                "subject": "T&NM",
                "room": "304"
            },
            {
                "time": "12:30 - 13:30",
                "subject": "Electives",
                "room": "See Elective Page"
            }
        ],
        "thursday": [
            {
                "time": "08:00 - 10:00",
                "subject": "PL(T) & Programming Lab",
                "room": "A-DL-006"
            },
            {
                "time": "11:20 - 12:20",
                "subject": "T&NM",
                "room": "304"
            },
            {
                "time": "13:30 - 14:30",
                "subject": "Electives",
                "room": "See Elective Page"
            }
        ],
        "friday": [
            {
                "time": "08:00 - 11:00",
                "subject": "ED & Graphics",
                "room": "Campus 3"
            },
            {
                "time": "10:20 - 11:20",
                "subject": "EVS",
                "room": "304"
            },
            {
                "time": "11:20 - 12:20",
                "subject": "PHY",
                "room": "304"
            },
            {
                "time": "12:20 - 13:20",
                "subject": "ScLS",
                "room": "304"
            }
        ]
    }
}