{
    "meta": {
        "section": "CSE-1",
        "type": "norm-class",
        "revision": "Revision 1.0",
        "effective-date": "Aug 10, 2024",
        "contributor": "PlanSync Admin :)",
        "isTimetableUpdating": false
    },
    "data": {
        "monday": [
            {
                "time": "08:00 - 09:00",
                "subject": "CN",
                "room": "B-201"
            },
            {
                "time": "09:00 - 10:00",
                "subject": "DAA(L)",
                "room": "A-DL-008"
            },
            {
                "time": "10:00 - 11:00",
                "subject": "DAA(L)",
                "room": "A-DL-008"
            },
            {
                "time": "11:00 - 12:00",
                "subject": "EE",
                "room": "B-201"
            },
            {
                "time": "12:00 - 13:00",
                "subject": "SE",
                "room": "B-201"
            }
        ],
        "wednesday": [
            {
                "time": "08:00 - 09:00",
                "subject": "DAA",
                "room": "B-204"
            },
            {
                "time": "09:00 - 10:00",
                "subject": "CN(L)",
                "room": "A-DL-008"
            },
            {
                "time": "10:00 - 11:00",
                "subject": "CN(L)",
                "room": "A-DL-008"
            }
        ],
        "thursday": [
            {
                "time": "08:00 - 09:00",
                "subject": "DAA",
                "room": "B-201"
            },
            {
                "time": "09:00 - 10:00",
                "subject": "SE",
                "room": "B-201"
            },
            {
                "time": "10:00 - 11:00",
                "subject": "CN",
                "room": "B-201"
            },
            {
                "time": "11:00 - 12:00",
                "subject": "EE",
                "room": "A-LH-104"
            }
        ],
        "friday": [
            {
                "time": "08:00 - 09:00",
                "subject": "SE",
                "room": "B-201"
            },
            {
                "time": "09:00 - 10:00",
                "subject": "DAA",
                "room": "B-201"
            },
            {
                "time": "10:00 - 11:00",
                "subject": "EE",
                "room": "B-201"
            }
        ],
        "saturday": [
            {
                "time": "11:00 - 12:00",
                "subject": "CN",
                "room": "B-201"
            },
            {
                "time": "12:00 - 13:00",
                "subject": "SE",
                "room": "B-201"
            }
        ]
    }
}