{
    "meta": {
        "section": "CSE-52",
        "type": "norm-class",
        "revision": "Revision 1.0",
        "effective-date": "Aug 10, 2024",
        "contributor": "PlanSync Admin :)",
        "isTimetableUpdating": false
    },
    "data": {
        "monday": [
            {
                "time": "10:00 - 11:00",
                "subject": "CN",
                "room": "A-LH-206"
            },
            {
                "time": "11:00 - 12:00",
                "subject": "DAA",
                "room": "A-LH-009"
            },
            {
                "time": "12:00 - 13:00",
                "subject": "SE",
                "room": "A-LH-009"
            },
            {
                "time": "13:00 - 14:00",
                "subject": "EE",
                "room": "A-LH-009"
            }
        ],
        "tuesday": [
            {
                "time": "08:00 - 09:00",
                "subject": "DAA",
                "room": "A-LH-206"
            },
            {
                "time": "09:00 - 10:00",
                "subject": "EE",
                "room": "A-LH-206"
            },
            {
                "time": "10:00 - 11:00",
                "subject": "SE",
                "room": "A-LH-206"
            }
        ],
        "wednesday": [
            {
                "time": "08:00 - 09:00",
                "subject": "EE",
                "room": "A-LH-110"
            },
            {
                "time": "09:00 - 10:00",
                "subject": "SE",
                "room": "A-LH-110"
            },
            {
                "time": "10:00 - 11:00",
                "subject": "CN",
                "room": "A-LH-110"
            }
        ],
        "thursday": [
            {
                "time": "08:00 - 09:00",
                "subject": "CN",
                "room": "B-403"
            },
            {
                "time": "09:00 - 10:00",
                "subject": "DAA(L)",
                "room": "A-DL-001"
            },
            {
                "time": "10:00 - 11:00",
                "subject": "DAA(L)",
                "room": "A-DL-001"
            }
        ],
        "saturday": [
            {
                "time": "08:00 - 09:00",
                "subject": "DAA",
                "room": "B-305"
            },
            {
                "time": "09:00 - 10:00",
                "subject": "CN(L)",
                "room": "WL-103"
            },
            {
                "time": "10:00 - 11:00",
                "subject": "CN(L)",
                "room": "WL-103"
            },
            {
                "time": "11:00 - 12:00",
                "subject": "SE",
                "room": "A-LH-204"
            }
        ]
    }
}