{
    "meta": {
        "section": "A34",
        "type": "norm-class",
        "revision": "Revision 3.0",
        "effective-date": "Sep 2, 2024",
        "contributor": "PlanSync Admin :)",
        "isTimetableUpdating": false
    },
    "data": {
        "monday": [
            {
                "time": "10:00 - 11:00",
                "subject": "Electives",
                "room": "See Electives Page"
            },
            {
                "time": "11:20 - 12:20",
                "subject": "EVS",
                "room": "C13"
            },
            {
                "time": "12:30 - 13:30",
                "subject": "DE&LA",
                "room": "206"
            },
            {
                "time": "15:30 - 16:30",
                "subject": "ScLs",
                "room": "206"
            }
        ],
        "tuesday": [
            {
                "time": "10:00 - 11:00",
                "subject": "Electives",
                "room": "See Electives Page"
            },
            {
                "time": "11:20 - 12:20",
                "subject": "EVS",
                "room": "206"
            },
            {
                "time": "12:30 - 13:30",
                "subject": "ScLs",
                "room": "206"
            },
            {
                "time": "15:30 - 17:30",
                "subject": "Phy. Lab",
                "room": "Campus 3"
            }
        ],
        "wednesday": [
            {
                "time": "10:00 - 11:00",
                "subject": "Electives",
                "room": "See Electives Page"
            },
            {
                "time": "11:30 - 12:30",
                "subject": "DE&LA",
                "room": "206"
            },
            {
                "time": "12:30 - 13:30",
                "subject": "PHY",
                "room": "206"
            },
            {
                "time": "15:00 - 18:00",
                "subject": "PL(T) & Programming Lab",
                "room": "A-DL-008"
            }
        ],
        "thursday": [
            {
                "time": "10:00 - 11:00",
                "subject": "Electives",
                "room": "See Electives Page"
            },
            {
                "time": "11:20 - 12:20",
                "subject": "DE&LA",
                "room": "206"
            },
            {
                "time": "12:30 - 13:30",
                "subject": "PHY",
                "room": "206"
            },
            {
                "time": "15:30 - 17:30",
                "subject": "ED & Graphics",
                "room": "Campus 3"
            }
        ],
        "friday": [
            
            {
                "time": "11:20 - 12:20",
                "subject": "DE&LA",
                "room": "206"
            },
            {
                "time": "12:30 - 13:30",
                "subject": "PHY",
                "room": "206"
            },
            {
                "time": "15:00 - 18:00",
                "subject": "PL(T) & Programming Lab",
                "room": "A-DL-008"
            }
        ]
    }
}