{
    "meta": {
        "section": "B30",
        "type": "norm-class",
        "revision": "Revision 3.0",
        "effective-date": "Sep 2, 2024",
        "contributor": "PlanSync Admin :)",
        "isTimetableUpdating": false
    },
    "data": {
        "monday": [
            {
                "time": "10:00 - 11:00",
                "subject": "BEE",
                "room": "102"
            },
            {
                "time": "11:00 - 12:00",
                "subject": "CHEM",
                "room": "102"
            },
            {
                "time": "14:00 - 16:00",
                "subject": "SY",
                "room": "Indoor Stadium, Campus 13"
            },
            {
                "time": "16:20 - 17:20",
                "subject": "BEtc",
                "room": "102"
            }
        ],
        "tuesday": [
            {
                "time": "10:00 - 11:00",
                "subject": "DE&LA",
                "room": "102"
            },
            {
                "time": "11:00 - 12:00",
                "subject": "BEE",
                "room": "102"
            },
            {
                "time": "14:00 - 16:00",
                "subject": "Comm. Lab",
                "room": "102"
            },
            {
                "time": "16:20 - 17:20",
                "subject": "ENG",
                "room": "102"
            }
        ],
        "wednesday": [
            {
                "time": "10:00 - 11:00",
                "subject": "DE&LA",
                "room": "102"
            },
            {
                "time": "11:00 - 12:00",
                "subject": "CHEM",
                "room": "102"
            },
            {
                "time": "14:00 - 16:00",
                "subject": "Workshop",
                "room": "Campus 8"
            },
            {
                "time": "16:20 - 17:20",
                "subject": "Electives",
                "room": "See Electives Page"
            }
        ],
        "thursday": [
            {
                "time": "10:00 - 11:00",
                "subject": "CHEM",
                "room": "102"
            },
            {
                "time": "11:00 - 12:00",
                "subject": "DE&LA",
                "room": "102"
            },
            {
                "time": "14:00 - 16:00",
                "subject": "Engg. Lab.",
                "room": "Campus 3"
            },
            {
                "time": "16:20 - 17:20",
                "subject": "Electives",
                "room": "See Electives Page"
            }
        ],
        "friday": [
            {
                "time": "10:00 - 11:00",
                "subject": "BEtc",
                "room": "102"
            },
            {
                "time": "11:00 - 12:00",
                "subject": "DE&LA",
                "room": "102"
            },
            {
                "time": "14:00 - 16:00",
                "subject": "Chem. Lab",
                "room": "Campus 3"
            },
            {
                "time": "16:20 - 17:20",
                "subject": "ENG",
                "room": "102"
            }
        ]
    }
}