{
    "meta": {
        "section": "B33",
        "type": "norm-class",
        "revision": "Revision 3.0",
        "effective-date": "Sep 2, 2024",
        "contributor": "PlanSync Admin :)",
        "isTimetableUpdating": false
    },
    "data": {
        "monday": [
            {
                "time": "11:00 - 12:00",
                "subject": "ENG",
                "room": "105"
            },
            {
                "time": "12:00 - 13:00",
                "subject": "CHEM",
                "room": "105"
            },
            {
                "time": "14:40 - 15:40",
                "subject": "DE&LA",
                "room": "105"
            },
            {
                "time": "16:00 - 18:00",
                "subject": "Workshop",
                "room": "Campus 8"
            }
        ],
        "tuesday": [
            {
                "time": "10:40 - 11:40",
                "subject": "BEtc.",
                "room": "105"
            },
            {
                "time": "11:40 - 12:40",
                "subject": "BEE",
                "room": "105"
            },
            {
                "time": "14:40 - 15:40",
                "subject": "DE&LA",
                "room": "105"
            },
            {
                "time": "16:00 - 18:00",
                "subject": "Engg. Lab",
                "room": "Campus 3"
            }
        ],
        "wednesday": [
            {
                "time": "10:40 - 11:40",
                "subject": "BEE",
                "room": "105"
            },
            {
                "time": "11:40 - 12:40",
                "subject": "DE&LA",
                "room": "105"
            },
            {
                "time": "14:40 - 15:40",
                "subject": "Electives",
                "room": "See Electives Page"
            },
            {
                "time": "16:00 - 18:00",
                "subject": "Chem Lab",
                "room": "Campus 3"
            }
        ],
        "thursday": [
            {
                "time": "11:00 - 12:00",
                "subject": "CHEM",
                "room": "105"
            },
            {
                "time": "12:00 - 13:00",
                "subject": "ENG",
                "room": "105"
            },
            {
                "time": "14:40 - 15:40",
                "subject": "Electives",
                "room": "See Electives Page"
            },
            {
                "time": "16:00 - 18:00",
                "subject": "SY",
                "room": "Indoor Stadium, Campus 13"
            }
        ],
        "friday": [
            {
                "time": "11:00 - 12:00",
                "subject": "CHEM",
                "room": "105"
            },
            {
                "time": "12:00 - 13:00",
                "subject": "BEtc.",
                "room": "105"
            },
            {
                "time": "14:40 - 15:40",
                "subject": "DE&LA",
                "room": "105"
            },
            {
                "time": "16:00 - 18:00",
                "subject": "Comm. Lab",
                "room": "105"
            }
        ]
    }
}