{
    "meta": {
        "type": "electives",
        "revision": "Revision 1.2",
        "effective-date": "nov 9, 2024",
        "name": "Electives Configuration for Scheme A",
        "isTimetableUpdating": false
    },
    "data": {
        "monday": [
            {
                "subject": "EML-1",
                "room": "CLA-1"
            },
            {
                "subject": "EML-2",
                "room": "CLA-2"
            },
            {
                "subject": "EML-3",
                "room": "CLA-3"
            },
            {
                "subject": "EML-4",
                "room": "CLA-4"
            },
            {
                "subject": "BME-1",
                "room": "CLA-5"
            },
            {
                "subject": "BME-2",
                "room": "CLA-6"
            },
            {
                "subject": "BME-3",
                "room": "CLA-19"
            },
            {
                "subject": "BCE-1",
                "room": "CL-1"
            },
            {
                "subject": "BI-1",
                "room": "CL-2"
            },
            {
                "subject": "BioM-1",
                "room": "CL-16"
            },
            {
                "subject": "BCE-2",
                "room": "E-105"
            },
            {
                "subject": "BCE-3",
                "room": "E-205"
            },
            {
                "subject": "SPH-3",
                "room": "CLA-1"
            },
            {
                "subject": "SPH-4",
                "room": "CLA-2"
            },
            {
                "subject": "OT-4",
                "room": "CLA-3"
            },
            {
                "subject": "OT-5",
                "room": "CLA-4"
            },
            {
                "subject": "OT-6",
                "room": "CLA-5"
            },
            {
                "subject": "OT-7",
                "room": "CLA-6"
            },
            {
                "subject": "NANO-4",
                "room": "CLA-19"
            },
            {
                "subject": "NANO-5",
                "room": "CL-1"
            },
            {
                "subject": "SM-4",
                "room": "CL-2"
            },
            {
                "subject": "SM-5",
                "room": "CL-16"
            },
            {
                "subject": "SM-6",
                "room": "CL-3"
            },
            {
                "subject": "MD-2",
                "room": "CL-4"
            },
            {
                "subject": "BME-8",
                "room": "A11"
            },
            {
                "subject": "BME-9",
                "room": "LT-1"
            },
            {
                "subject": "BME-10",
                "room": "CR-2"
            },
            {
                "subject": "BME-11",
                "room": "201"
            },
            {
                "subject": "BioM-4",
                "room": "202"
            },
            {
                "subject": "BCE-7",
                "room": "C-23"
            },
            {
                "subject": "BCE-8",
                "room": "C-9"
            },
            {
                "subject": "BI-5",
                "room": "C-12"
            },
            {
                "subject": "BI-6",
                "room": "C13"
            },
            {
                "subject": "BME-12",
                "room": "206"
            },
            {
                "subject": "BCE-9(10:00-11:00)",
                "room": "207"
            },
            {
                "subject": "BCE-10(16:30-17:30)",
                "room": "207"
            }
        ],
        "tuesday": [
            {
                "subject": "SPH-1",
                "room": "CLA-1"
            },
            {
                "subject": "SPH-2",
                "room": "CLA-2"
            },
            {
                "subject": "OT-1",
                "room": "CLA-3"
            },
            {
                "subject": "OT-2",
                "room": "CLA-4"
            },
            {
                "subject": "OT-3",
                "room": "CLA-5"
            },
            {
                "subject": "NANO-1",
                "room": "CLA-6"
            },
            {
                "subject": "NANO-2",
                "room": "CLA-19"
            },
            {
                "subject": "NANO-3",
                "room": "CL-1"
            },
            {
                "subject": "SM-1",
                "room": "CL-2"
            },
            {
                "subject": "SM-2",
                "room": "CL-16"
            },
            {
                "subject": "SM-3",
                "room": "E-105"
            },
            {
                "subject": "MD-1",
                "room": "E-205"
            },
            {
                "subject": "BME-4",
                "room": "CLA-1"
            },
            {
                "subject": "BME-5",
                "room": "CLA-2"
            },
            {
                "subject": "BME-6",
                "room": "CLA-3"
            },
            {
                "subject": "BME-7",
                "room": "CLA-4"
            },
            {
                "subject": "BCE-4",
                "room": "CLA-5"
            },
            {
                "subject": "BI-1",
                "room": "CLA-2"
            },
            {
                "subject": "BI-2",
                "room": "CLA-6"
            },
            {
                "subject": "BI-3",
                "room": "CLA-19"
            },
            {
                "subject": "BioM-1",
                "room": "CL-1"
            },
            {
                "subject": "BioM-2",
                "room": "CL-2"
            },
            {
                "subject": "BI-4",
                "room": "CL-16"
            },
            {
                "subject": "BCE-5",
                "room": "CL-3"
            },
            {
                "subject": "BCE-6",
                "room": "CL-4"
            },
            {
                "subject": "SPH-5",
                "room": "A11"
            },
            {
                "subject": "SPH-6",
                "room": "LT-1"
            },
            {
                "subject": "OT-8",
                "room": "CR-2"
            },
            {
                "subject": "OT-9",
                "room": "201"
            },
            {
                "subject": "MD-3",
                "room": "202"
            },
            {
                "subject": "NANO-6",
                "room": "C-23"
            },
            {
                "subject": "NANO-7",
                "room": "C-9"
            },
            {
                "subject": "SM-7",
                "room": "C-14"
            },
            {
                "subject": "SM-8",
                "room": "C-20"
            },
            {
                "subject": "NANO-8",
                "room": "206"
            },
            {
                "subject": "SM-9",
                "room": "207"
            }
        ],
        "wednesday": [
            {
                "subject": "EML-1",
                "room": "CLA-1"
            },
            {
                "subject": "EML-2",
                "room": "CLA-2"
            },
            {
                "subject": "EML-3",
                "room": "CLA-3"
            },
            {
                "subject": "EML-4",
                "room": "CLA-4"
            },
            {
                "subject": "BME-1",
                "room": "CLA-5"
            },
            {
                "subject": "BME-2",
                "room": "CLA-6"
            },
            {
                "subject": "BME-3",
                "room": "CLA-19"
            },
            {
                "subject": "BCE-1",
                "room": "CL-1"
            },
            {
                "subject": "BI-1",
                "room": "CL-2"
            },
            {
                "subject": "BioM-1",
                "room": "CL-16"
            },
            {
                "subject": "BCE-2",
                "room": "E-105"
            },
            {
                "subject": "BCE-3",
                "room": "E-205"
            },
            {
                "subject": "SPH-3",
                "room": "CLA-1"
            },
            {
                "subject": "SPH-4",
                "room": "CLA-2"
            },
            {
                "subject": "OT-4",
                "room": "CLA-3"
            },
            {
                "subject": "OT-5",
                "room": "CLA-4"
            },
            {
                "subject": "OT-6",
                "room": "CLA-5"
            },
            {
                "subject": "OT-7",
                "room": "CLA-6"
            },
            {
                "subject": "NANO-4",
                "room": "CLA-19"
            },
            {
                "subject": "NANO-5",
                "room": "CL-1"
            },
            {
                "subject": "SM-4",
                "room": "CL-2"
            },
            {
                "subject": "SM-5",
                "room": "CL-16"
            },
            {
                "subject": "SM-6",
                "room": "CL-3"
            },
            {
                "subject": "MD-2",
                "room": "CL-4"
            },
            {
                "subject": "BME-8",
                "room": "A11"
            },
            {
                "subject": "BME-9",
                "room": "LT-1"
            },
            {
                "subject": "BME-10",
                "room": "CR-2"
            },
            {
                "subject": "BME-11",
                "room": "201"
            },
            {
                "subject": "BioM-4",
                "room": "202"
            },
            {
                "subject": "BCE-7",
                "room": "C-23"
            },
            {
                "subject": "BCE-8",
                "room": "C-9"
            },
            {
                "subject": "BI-5",
                "room": "C-12"
            },
            {
                "subject": "BI-6",
                "room": "C13"
            },
            {
                "subject": "BME-12",
                "room": "206"
            },
            {
                "subject": "BCE-9",
                "room": "207"
            }
        ],
        "thursday": [
            {
                "subject": "SPH-1",
                "room": "CLA-1"
            },
            {
                "subject": "SPH-2",
                "room": "CLA-2"
            },
            {
                "subject": "OT-1",
                "room": "CLA-3"
            },
            {
                "subject": "OT-2",
                "room": "CLA-4"
            },
            {
                "subject": "OT-3",
                "room": "CLA-5"
            },
            {
                "subject": "NANO-1",
                "room": "CLA-6"
            },
            {
                "subject": "NANO-2",
                "room": "CLA-19"
            },
            {
                "subject": "NANO-3",
                "room": "CL-1"
            },
            {
                "subject": "SM-1",
                "room": "CL-2"
            },
            {
                "subject": "SM-2",
                "room": "CL-16"
            },
            {
                "subject": "SM-3",
                "room": "E-105"
            },
            {
                "subject": "MD-1",
                "room": "E-205"
            },
            {
                "subject": "BME-4",
                "room": "CLA-1"
            },
            {
                "subject": "BME-5",
                "room": "CLA-2"
            },
            {
                "subject": "BME-6",
                "room": "CLA-3"
            },
            {
                "subject": "BME-7",
                "room": "CLA-4"
            },
            {
                "subject": "BCE-4",
                "room": "CLA-5"
            },
            {
                "subject": "BI-1",
                "room": "CLA-6"
            },
            {
                "subject": "BI-2",
                "room": "CLA-19"
            },
            {
                "subject": "BI-3",
                "room": "CLA-19"
            },
            {
                "subject": "BioM-1",
                "room": "CL-1"
            },
            {
                "subject": "BioM-2",
                "room": "CL-2"
            },
            {
                "subject": "BI-4",
                "room": "CL-16"
            },
            {
                "subject": "BCE-5",
                "room": "CL-3"
            },
            {
                "subject": "BCE-6",
                "room": "CL-4"
            },
            {
                "subject": "SPH-5",
                "room": "A11"
            },
            {
                "subject": "SPH-6",
                "room": "LT-1"
            },
            {
                "subject": "OT-8",
                "room": "CR-2"
            },
            {
                "subject": "OT-9",
                "room": "201"
            },
            {
                "subject": "MD-3",
                "room": "202"
            },
            {
                "subject": "NANO-6",
                "room": "C-23"
            },
            {
                "subject": "NANO-7",
                "room": "C-9"
            },
            {
                "subject": "SM-7",
                "room": "C-14"
            },
            {
                "subject": "SM-8",
                "room": "C-14"
            },
            {
                "subject": "NANO-8",
                "room": "206"
            },
            {
                "subject": "SM-9",
                "room": "207"
            }
        ],
        "friday": [
            {
                "subject": "BCE-10",
                "room": "206"
            }
        ],
        "saturday": [
            {
                "subject": "***",
                "room": "***"
            }
        ]
    }
}