{
    "meta": {
        "section": "a1",
        "type": "norm-class",
        "revision": "Revision 1.03",
        "effective-date": "Jan 15, 2024 (Satrudays' valid till Apr 13)",
        "contributor": "PlanSync Admin(N) :)",
        "isTimetableUpdating": false
    },
    "data": {
        "monday": [
            {
                "time": "08:00 - 10:00",
                "subject": "Engg. Lab.",
                "room": "102"
            },
            {
                "time": "10:00 - 11:00",
                "subject": "***",
                "room": "102"
            },
            {
                "time": "11:00 - 12:00",
                "subject": "T & NM.",
                "room": "102"
            },
            {
                "time": "12:00 - 13:00",
                "subject": "English",
                "room": "102"
            },
            {
                "time": "13:20 - 14:20",
                "subject": "Electives",
                "room": "102"
            }
        ],
        "tuesday": [
            {
                "time": "08:00 - 10:00",
                "subject": "Workshop practice",
                "room": "104"
            },
            {
                "time": "10:00 - 11:00",
                "subject": "***",
                "room": "104"
            },
            {
                "time": "11:00 - 12:00",
                "subject": "Chem",
                "room": "104"
            },
            {
                "time": "12:00 - 13:00",
                "subject": "T & NM.",
                "room": "104"
            },
            {
                "time": "13:00 - 14:00",
                "subject": "E. Mech.",
                "room": "104"
            }
        ],
        "wednesday": [
            {
                "time": "06:30 - 07:30",
                "subject": "YHC(P)",
                "room": "103"
            },
            {
                "time": "09:00 - 10:00",
                "subject": "English",
                "room": "103"
            },
            {
                "time": "10:00 - 11:00",
                "subject": "Chem",
                "room": "103"
            },
            {
                "time": "11:00 - 12:00",
                "subject": "B.Etc.",
                "room": "103"
            },
            {
                "time": "12:00 - 13:00",
                "subject": "T & NM.",
                "room": "103"
            }
        ],
        "thursday": [
            {
                "time": "08:00 - 09:00",
                "subject": "T & NM.",
                "room": "103"
            },
            {
                "time": "09:00 - 10:00",
                "subject": "Chem",
                "room": "103"
            },
            {
                "time": "10:00 - 11:00",
                "subject": "E. Mech.",
                "room": "103"
            },
            {
                "time": "11:00 - 12:00",
                "subject": "YHC",
                "room": "103"
            },
            {
                "time": "11:00 - 13:00",
                "subject": "Comm. Lab",
                "room": "103"
            }
        ],
        "friday": [
            {
                "time": "08:20 - 09:20",
                "subject": "B.Etc.",
                "room": "103"
            },
            {
                "time": "09:00 - 10:00",
                "subject": "***",
                "room": "103"
            },
            {
                "time": "10:00 - 12:00",
                "subject": "Chem. Lab",
                "room": "103"
            },
            {
                "time": "12:00 - 13:00",
                "subject": "***",
                "room": "103"
            },
            {
                "time": "13:20 - 14:20",
                "subject": "Electives",
                "room": "103"
            }
        ],
        "saturday": [
            {
                "time": "08:00 - 10:00",
                "subject": "Engg. Lab.",
                "room": "102"
            },
            {
                "time": "10:00 - 11:00",
                "subject": "***",
                "room": "102"
            },
            {
                "time": "11:00 - 12:00",
                "subject": "T & NM.",
                "room": "102"
            },
            {
                "time": "12:00 - 13:00",
                "subject": "English",
                "room": "102"
            },
            {
                "time": "13:20 - 14:20",
                "subject": "Electives",
                "room": "102"
            }
        ]
    }
}