{
    "meta": {
        "section": "a16",
        "type": "norm-class",
        "revision": "Revision 1.03",
        "effective-date": "Jan 15, 2024 (Satrudays' valid till Apr 13)",
        "contributor": "PlanSync Admin :)",
        "isTimetableUpdating": false
    },
    "data": {
        "monday": [
            {
                "time": "08:00 - 09:00",
                "subject": "Electives",
                "room": "C-20"
            },
            {
                "time": "09:00 - 10:00",
                "subject": "***",
                "room": "C-20"
            },
            {
                "time": "10:00 - 12:00",
                "subject": "Workshop Practice",
                "room": "C-20"
            },
            {
                "time": "12:00 - 12:20",
                "subject": "***",
                "room": "C-20"
            },
            {
                "time": "12:20 - 13:20",
                "subject": "T & NM.",
                "room": "C-20"
            },
            {
                "time": "13:20 - 14:20",
                "subject": "English",
                "room": "C-20"
            }
        ],
        "tuesday": [
            {
                "time": "08:20 - 09:20",
                "subject": "T & NM.",
                "room": "C-13"
            },
            {
                "time": "09:20 - 10:20",
                "subject": "Chem",
                "room": "C-13"
            },
            {
                "time": "10:20 - 11:20",
                "subject": "B. Etc",
                "room": "C-13"
            },
            {
                "time": "11:20 - 12:20",
                "subject": "BEE",
                "room": "C-13"
            },
            {
                "time": "12:20 - 13:20",
                "subject": "YHC",
                "room": "C-13"
            }
        ],
        "wednesday": [
            {
                "time": "08:00 - 09:00",
                "subject": "Electives",
                "room": "CLA3"
            },
            {
                "time": "09:00 - 10:00",
                "subject": "***",
                "room": "CLA3"
            },
            {
                "time": "10:00 - 12:00",
                "subject": "Engg. Lab",
                "room": "CLA3"
            },
            {
                "time": "12:00 - 12:20",
                "subject": "***",
                "room": "CLA3"
            },
            {
                "time": "12:20 - 13:20",
                "subject": "T & NM.",
                "room": "CLA3"
            },
            {
                "time": "13:20 - 14:20",
                "subject": "Chem",
                "room": "CLA3"
            }
        ],
        "thursday": [
            {
                "time": "08:20 - 09:20",
                "subject": "BEE",
                "room": "CL4"
            },
            {
                "time": "09:20 - 10:00",
                "subject": "***",
                "room": "CL4"
            },
            {
                "time": "10:00 - 12:00",
                "subject": "Chem. Lab",
                "room": "CL4"
            },
            {
                "time": "12:00 - 12:20",
                "subject": "***",
                "room": "CL4"
            },
            {
                "time": "12:20 - 13:20",
                "subject": "English",
                "room": "CL4"
            },
            {
                "time": "13:20 - 14:20",
                "subject": "B. Etc",
                "room": "CL4"
            }
        ],
        "friday": [
            {
                "time": "08:00 - 09:00",
                "subject": "Electives",
                "room": "C-15"
            },
            {
                "time": "09:00 - 09:20",
                "subject": "***",
                "room": "C-15"
            },
            {
                "time": "09:20 - 11:20",
                "subject": "Comm. Lab",
                "room": "C-15"
            },
            {
                "time": "11:20 - 12:20",
                "subject": "Chem",
                "room": "C-15"
            },
            {
                "time": "12:20 - 13:20",
                "subject": "T & NM.",
                "room": "C-15"
            }
        ],
        "saturday": [
            {
                "time": "08:00 - 09:00",
                "subject": "Electives",
                "room": "C-20"
            },
            {
                "time": "09:00 - 10:00",
                "subject": "***",
                "room": "C-20"
            },
            {
                "time": "10:00 - 12:00",
                "subject": "Workshop Practice",
                "room": "C-20"
            },
            {
                "time": "12:00 - 12:20",
                "subject": "***",
                "room": "C-20"
            },
            {
                "time": "12:20 - 13:20",
                "subject": "T & NM.",
                "room": "C-20"
            },
            {
                "time": "13:20 - 14:20",
                "subject": "English",
                "room": "C-20"
            }
        ]
    }
}