{
    "meta": {
        "section": "a23",
        "type": "norm-class",
        "revision": "Revision 1.03",
        "effective-date": "Jan 15, 2024 (Satrudays' valid till Apr 13)",
        "contributor": "PlanSync Admin :)",
        "isTimetableUpdating": false
    },
    "data": {
        "monday": [
            {
                "time": "06:30 - 07:30",
                "subject": "YHC (P)",
                "room": "C-20"
            },
            {
                "time": "07:30 - 09:20",
                "subject": "***",
                "room": "C-20"
            },
            {
                "time": "09:20 - 10:20",
                "subject": "T & NM.",
                "room": "C-20"
            },
            {
                "time": "10:20 - 11:20",
                "subject": "Chem",
                "room": "C-20"
            },
            {
                "time": "11:20 - 12:00",
                "subject": "***",
                "room": "C-20"
            },
            {
                "time": "12:00 - 14:00",
                "subject": "Workshop Practice",
                "room": "C-20"
            }
        ],
        "tuesday": [
            {
                "time": "09:20 - 10:20",
                "subject": "T & NM.",
                "room": "C-20"
            },
            {
                "time": "10:20 - 11:20",
                "subject": "BEE",
                "room": "C-20"
            },
            {
                "time": "11:20 - 12:00",
                "subject": "***",
                "room": "C-20"
            },
            {
                "time": "12:00 - 14:00",
                "subject": "Chem. Lab",
                "room": "C-20"
            }
        ],
        "wednesday": [
            {
                "time": "09:20 - 11:20",
                "subject": "Comm. Lab",
                "room": "C-15"
            },
            {
                "time": "11:20 - 12:00",
                "subject": "***",
                "room": "C-15"
            },
            {
                "time": "12:00 - 14:00",
                "subject": "Engg. Lab",
                "room": "C-15"
            }
        ],
        "thursday": [
            {
                "time": "09:20 - 10:20",
                "subject": "Chem",
                "room": "C-18"
            },
            {
                "time": "10:20 - 11:20",
                "subject": "T & NM",
                "room": "C-18"
            },
            {
                "time": "11:20 - 12:20",
                "subject": "B. Etc",
                "room": "C-18"
            },
            {
                "time": "12:20 - 13:20",
                "subject": "English",
                "room": "C-18"
            },
            {
                "time": "13:20 - 14:20",
                "subject": "YHC",
                "room": "C-18"
            }
        ],
        "friday": [
            {
                "time": "09:20 - 10:20",
                "subject": "English",
                "room": "C-19"
            },
            {
                "time": "10:20 - 11:20",
                "subject": "B. Etc",
                "room": "C-19"
            },
            {
                "time": "11:20 - 12:20",
                "subject": "Chem",
                "room": "C-19"
            },
            {
                "time": "12:20 - 13:20",
                "subject": "BEE",
                "room": "C-19"
            },
            {
                "time": "13:20 - 14:20",
                "subject": "T & NM.",
                "room": "C-19"
            }
        ],
        "saturday": [
            {
                "time": "06:30 - 07:30",
                "subject": "YHC (P)",
                "room": "C-20"
            },
            {
                "time": "07:30 - 09:20",
                "subject": "***",
                "room": "C-20"
            },
            {
                "time": "09:20 - 10:20",
                "subject": "T & NM.",
                "room": "C-20"
            },
            {
                "time": "10:20 - 11:20",
                "subject": "Chem",
                "room": "C-20"
            },
            {
                "time": "11:20 - 12:00",
                "subject": "***",
                "room": "C-20"
            },
            {
                "time": "12:00 - 14:00",
                "subject": "Workshop Practice",
                "room": "C-20"
            }
        ]
    }
}