{
    "meta": {
        "section": "a27",
        "type": "norm-class",
        "revision": "Revision 1.03",
        "effective-date": "Jan 15, 2024 (Satrudays' valid till Apr 13)",
        "contributor": "PlanSync Admin :)",
        "isTimetableUpdating": false
    },
    "data": {
        "monday": [
            {
                "time": "06:30 - 07:30",
                "subject": "YHC(P)",
                "room": "C-19"
            },
            {
                "time": "10:00 : 11:00",
                "subject": "Elective",
                "room": "C-19"
            },
            {
                "time": "11:20 - 12:20",
                "subject": "B. Etc.",
                "room": "C-19"
            },
            {
                "time": "12:20 - 13:20",
                "subject": "T&NM.",
                "room": "C-19"
            },
            {
                "time": "13:20 - 14:20",
                "subject": "***",
                "room": "C-19"
            },
            {
                "time": "15:00 - 17:00",
                "subject": "Workshop",
                "room": "C-19"
            }
        ],
        "tuesday": [
            {
                "time": "11:20 - 12:00",
                "subject": "***",
                "room": "CL4"
            },
            {
                "time": "12:00 - 14:00",
                "subject": "Chem. Lab.",
                "room": "CL4"
            },
            {
                "time": "15:00 - 16:00",
                "subject": "BEE",
                "room": "CL4"
            },
            {
                "time": "16:00 - 17:00",
                "subject": "English",
                "room": "CL4"
            },
            {
                "time": "17:00 - 18:00",
                "subject": "T & NM.",
                "room": "CL4"
            }
        ],
        "wednesday": [
            {
                "time": "10:00 - 11:00",
                "subject": "Elective",
                "room": "C-13"
            },
            {
                "time": "11:20 - 13:20",
                "subject": "Comm. Lab",
                "room": "C-13"
            },
            {
                "time": "13:20 - 14:20",
                "subject": "***",
                "room": "C-13"
            },
            {
                "time": "15:00 - 16:00",
                "subject": "YHC",
                "room": "C-13"
            },
            {
                "time": "16:00 - 17:00",
                "subject": "T&NM.",
                "room": "C-13"
            },
            {
                "time": "17:00 - 18:00",
                "subject": "Chem.",
                "room": "C-13"
            }
        ],
        "thursday": [
            {
                "time": "11:20 - 12:20",
                "subject": "Chem.",
                "room": "C-13"
            },
            {
                "time": "12:20 - 13:20",
                "subject": "B. Etc",
                "room": "C-13"
            },
            {
                "time": "13:20 - 14:20",
                "subject": "***",
                "room": "C-13"
            },
            {
                "time": "15:00 - 16:00",
                "subject": "T&NM.",
                "room": "C-13"
            },
            {
                "time": "16:00 - 17:00",
                "subject": "Eng.",
                "room": "C-13"
            }
        ],
        "friday": [
            {
                "time": "10:00 - 11:00",
                "subject": "Elective.",
                "room": "C-14"
            },
            {
                "time": "11:20 - 12:00",
                "subject": "***",
                "room": "C-14"
            },
            {
                "time": "12:00 - 14:00",
                "subject": "Engg. Lab",
                "room": "C-14"
            },
            {
                "time": "15:00 - 16:00",
                "subject": "Chem",
                "room": "C-14"
            },
            {
                "time": "16:00 - 17:00",
                "subject": "BEE",
                "room": "C-14"
            }
        ],
        "saturday": [
            {
                "time": "06:30 - 07:30",
                "subject": "YHC(P)",
                "room": "C-19"
            },
            {
                "time": "10:00 : 11:00",
                "subject": "Elective",
                "room": "C-19"
            },
            {
                "time": "11:20 - 12:20",
                "subject": "B. Etc.",
                "room": "C-19"
            },
            {
                "time": "12:20 - 13:20",
                "subject": "T&NM.",
                "room": "C-19"
            },
            {
                "time": "13:20 - 14:20",
                "subject": "***",
                "room": "C-19"
            },
            {
                "time": "15:00 - 17:00",
                "subject": "Workshop",
                "room": "C-19"
            }
        ]
    }
}