{
    "meta": {
        "section": "a33",
        "type": "norm-class",
        "revision": "Revision 1.03",
        "effective-date": "Jan 15, 2024 (Satrudays' valid till Apr 13)",
        "contributor": "PlanSync Admin :)",
        "isTimetableUpdating": false
    },
    "data": {
        "monday": [
            {
                "time": "10:00 - 11:00",
                "subject": "Elective",
                "room": "CR-1"
            },
            {
                "time": "11:20 - 12:20",
                "subject": "Chem",
                "room": "CR-1"
            },
            {
                "time": "12:20 - 13:20",
                "subject": "B. Etc",
                "room": "CR-1"
            },
            {
                "time": "13:20 - 15:00",
                "subject": "***",
                "room": "CR-1"
            },
            {
                "time": "15:00 - 16:00",
                "subject": "English",
                "room": "CR-1"
            },
            {
                "time": "16:00 - 17:00",
                "subject": "T & NM.",
                "room": "CR-1"
            },
            {
                "time": "17:00 - 18:00",
                "subject": "YHC",
                "room": "CR-1"
            }
        ],
        "tuesday": [
            {
                "time": "06:30 - 07:30",
                "subject": "YHC(P)",
                "room": "C-12"
            },
            {
                "time": "11:20 - 12:20",
                "subject": "T & NM.",
                "room": "C-12"
            },
            {
                "time": "12:20 - 13:20",
                "subject": "BEE",
                "room": "C-12"
            },
            {
                "time": "13:20 - 15:00",
                "subject": "***",
                "room": "C-12"
            },
            {
                "time": "15:00 - 17:00",
                "subject": "Chem. Lab",
                "room": "C-12"
            }
        ],
        "wednesday": [
            {
                "time": "10:00 - 11:00",
                "subject": "Elective",
                "room": "CL16"
            },
            {
                "time": "11:20 - 12:20",
                "subject": "Chem",
                "room": "CL16"
            },
            {
                "time": "12:20 - 13:20",
                "subject": "BEE",
                "room": "CL16"
            },
            {
                "time": "13:20 - 15:00",
                "subject": "***",
                "room": "CL16"
            },
            {
                "time": "15:00 - 17:00",
                "subject": "Engg. Lab",
                "room": "CL16"
            }
        ],
        "thursday": [
            {
                "time": "11:20 - 12:20",
                "subject": "B. Etc",
                "room": "C-10"
            },
            {
                "time": "12:20 - 13:20",
                "subject": "T & NM.",
                "room": "C-10"
            },
            {
                "time": "13:20 - 15:00",
                "subject": "***",
                "room": "C-10"
            },
            {
                "time": "15:00 - 17:00",
                "subject": "Workshop Practice",
                "room": "C-10"
            }
        ],
        "friday": [
            {
                "time": "06:30 - 07:30",
                "subject": "YHC(P)",
                "room": "CL16"
            },
            {
                "time": "11:20 - 12:20",
                "subject": "Chem",
                "room": "CL16"
            },
            {
                "time": "12:20 - 13:20",
                "subject": "English",
                "room": "CL16"
            },
            {
                "time": "13:20 - 15:00",
                "subject": "***",
                "room": "CL16"
            },
            {
                "time": "15:00 - 16:00",
                "subject": "T&NM",
                "room": "CL16"
            },
            {
                "time": "16:00 - 18:00",
                "subject": "Comm. Lab",
                "room": "CL16"
            }
        ],
        "saturday": [
            {
                "time": "10:00 - 11:00",
                "subject": "Elective",
                "room": "CR-1"
            },
            {
                "time": "11:20 - 12:20",
                "subject": "Chem",
                "room": "CR-1"
            },
            {
                "time": "12:20 - 13:20",
                "subject": "B. Etc",
                "room": "CR-1"
            },
            {
                "time": "13:20 - 15:00",
                "subject": "***",
                "room": "CR-1"
            },
            {
                "time": "15:00 - 16:00",
                "subject": "English",
                "room": "CR-1"
            },
            {
                "time": "16:00 - 17:00",
                "subject": "T & NM.",
                "room": "CR-1"
            },
            {
                "time": "17:00 - 18:00",
                "subject": "YHC",
                "room": "CR-1"
            }
        ]
    }
}