{
    "meta": {
        "section": "b8",
        "type": "norm-class",
        "revision": "Revision 1.03",
        "effective-date": "Jan 15, 2024 (Satrudays' valid till Apr 13)",
        "contributor": "PlanSync Admin :)",
        "isTimetableUpdating": false
    },
    "data": {
        "monday": [
            {
                "time": "08:00 - 10:00",
                "subject": "Physics Lab",
                "room": "502"
            },
            {
                "time": "10:00 - 11:00",
                "subject": "***",
                "room": "502"
            },
            {
                "time": "11:00 - 12:00",
                "subject": "Physics",
                "room": "502"
            },
            {
                "time": "12:00 - 13:00",
                "subject": "EVS",
                "room": "502"
            },
            {
                "time": "13:00 - 13:20",
                "subject": "***",
                "room": "502"
            },
            {
                "time": "13:@0 - 14:20",
                "subject": "Electives",
                "room": "502"
            }
        ],
        "tuesday": [
            {
                "time": "08:00 - 11:00",
                "subject": "PL(T) & Programming Lab.",
                "room": "201"
            },
            {
                "time": "11:00 - 11:15",
                "subject": "***",
                "room": "201"
            },
            {
                "time": "11:15 - 13:15",
                "subject": "T & NM.",
                "room": "201"
            },
            {
                "time": "13:15 - 13:20",
                "subject": "***",
                "room": "201"
            },
            {
                "time": "13:20 - 14:20",
                "subject": "Electives",
                "room": "201"
            }
        ],
        "wednesday": [
            {
                "time": "08:00 - 10:00",
                "subject": "ED & Graphics",
                "room": "502"
            },
            {
                "time": "10:00 - 11:00",
                "subject": "***",
                "room": "502"
            },
            {
                "time": "11:00 - 12:00",
                "subject": "T & NM.",
                "room": "502"
            },
            {
                "time": "12:00 - 13:00",
                "subject": "Sc LS.",
                "room": "502"
            },
            {
                "time": "13:00 - 13:20",
                "subject": "***",
                "room": "502"
            },
            {
                "time": "13:20 - 14:20",
                "subject": "Electives",
                "room": "502"
            }
        ],
        "thursday": [
            {
                "time": "08:00 - 09:00",
                "subject": "Sc LS.",
                "room": "305"
            },
            {
                "time": "09:00 - 10:00",
                "subject": "EVS",
                "room": "305"
            },
            {
                "time": "10:00 - 11:00",
                "subject": "Physics",
                "room": "305"
            },
            {
                "time": "11:00 - 12:00",
                "subject": "T & NM.",
                "room": "305"
            },
            {
                "time": "12:00 - 13:20",
                "subject": "***",
                "room": "305"
            },
            {
                "time": "13:20 - 14:20",
                "subject": "Electives",
                "room": "305"
            }
        ],
        "friday": [
            {
                "time": "08:00 - 11:00",
                "subject": "PL(T) & Programming Lab",
                "room": "101"
            },
            {
                "time": "11:00 - 12:00",
                "subject": "***",
                "room": "101"
            },
            {
                "time": "12:00 - 13:00",
                "subject": "Physics",
                "room": "101"
            },
            {
                "time": "13:00 - 13:20",
                "subject": "***",
                "room": "101"
            },
            {
                "time": "13:20 - 14:20",
                "subject": "Electives",
                "room": "101"
            }
        ],
        "saturday": [
            {
                "time": "08:00 - 10:00",
                "subject": "Physics Lab",
                "room": "502"
            },
            {
                "time": "10:00 - 11:00",
                "subject": "***",
                "room": "502"
            },
            {
                "time": "11:00 - 12:00",
                "subject": "Physics",
                "room": "502"
            },
            {
                "time": "12:00 - 13:00",
                "subject": "EVS",
                "room": "502"
            },
            {
                "time": "13:00 - 13:20",
                "subject": "***",
                "room": "502"
            },
            {
                "time": "13:@0 - 14:20",
                "subject": "Electives",
                "room": "502"
            }
        ]
    }
}