{
    "meta": {
        "section": "CSCE-1",
        "type": "norm-class",
        "revision": "Revision 1.1",
        "effective-date": "Jul 24, 2024",
        "contributor": "PlanSync Admin :)",
        "isTimetableUpdating": false
    },
    "data": {
        "tuesday": [
            {
                "time": "11:00 - 12:00",
                "subject": "PS",
                "room": "A-LH-203"
            },
            {
                "time": "12:00 - 13:00",
                "subject": "STW",
                "room": "A-LH-203"
            },
            {
                "time": "13:00 - 14:00",
                "subject": "DS",
                "room": "A-LH-203"
            },
            {
                "time": "15:00 - 16:00",
                "subject": "DSD",
                "room": "C12_WCN"
            },
            {
                "time": "16:00 - 17:00",
                "subject": "DSD(L)",
                "room": "C12_WCN"
            },
            {
                "time": "17:00 - 18:00",
                "subject": "DSD(L)",
                "room": "C12_WCN"
            }
        ],
        "wednesday": [
            {
                "time": "11:00 - 12:00",
                "subject": "DSD",
                "room": "A-LH-201"
            },
            {
                "time": "12:00 - 13:00",
                "subject": "STW",
                "room": "A-LH-201"
            },
            {
                "time": "13:00 - 14:00",
                "subject": "CE",
                "room": "A-LH-201"
            },
            {
                "time": "15:00 - 16:00",
                "subject": "PS",
                "room": "B-206"
            },
            {
                "time": "16:00 - 17:00",
                "subject": "DS(L)",
                "room": "A-DL-108"
            },
            {
                "time": "17:00 - 18:00",
                "subject": "DS(L)",
                "room": "A-DL-108"
            }
        ],
        "thursday": [
            {
                "time": "11:00 - 12:00",
                "subject": "CE",
                "room": "CE-L1"
            },
            {
                "time": "12:00 - 13:00",
                "subject": "CE(L)",
                "room": "CE-L1"
            },
            {
                "time": "13:00 - 14:00",
                "subject": "CE(L)",
                "room": "CE-L1"
            },
            {
                "time": "15:00 - 16:00",
                "subject": "PS",
                "room": "A-LH-203"
            },
            {
                "time": "16:00 - 17:00",
                "subject": "IND4",
                "room": "A-LH-203"
            },
            {
                "time": "17:00 - 18:00",
                "subject": "DS",
                "room": "A-LH-203"
            }
        ],
        "friday": [
            {
                "time": "11:00 - 12:00",
                "subject": "IND4",
                "room": "A-LH-201"
            },
            {
                "time": "12:00 - 13:00",
                "subject": "DS",
                "room": "A-LH-201"
            },
            {
                "time": "13:00 - 14:00",
                "subject": "PS",
                "room": "A-LH-201"
            },
            {
                "time": "15:00 - 16:00",
                "subject": "DSD",
                "room": "B-203"
            },
            {
                "time": "16:00 - 17:00",
                "subject": "CE",
                "room": "B-203"
            }
        ],
        "saturday": [
            {
                "time": "10:00 - 11:00",
                "subject": "DS",
                "room": "A-LH-010"
            }
        ]
    }
}