{
    "meta": {
        "section": "CSE-13",
        "type": "norm-class",
        "revision": "Revision 1.1",
        "effective-date": "Jul 24, 2024",
        "contributor": "PlanSync Admin :)",
        "isTimetableUpdating": false
    },
    "data": {
        "monday": [
            {
                "time": "08:00 - 09:00",
                "subject": "PS",
                "room": "C-LH-001"
            },
            {
                "time": "09:00 - 10:00",
                "subject": "DS",
                "room": "C-LH-001"
            },
            {
                "time": "10:00 - 11:00",
                "subject": "AFL",
                "room": "C-LH-001"
            },
            {
                "time": "14:00 - 15:00",
                "subject": "IND4",
                "room": "C-LH-001"
            },
            {
                "time": "15:00 - 16:00",
                "subject": "DSD",
                "room": "C-LH-001"
            },
            {
                "time": "16:00 - 17:00",
                "subject": "STW",
                "room": "C-LH-001"
            }
        ],
        "wednesday": [
            {
                "time": "11:00 - 12:00",
                "subject": "AFL",
                "room": "C-LH-205"
            },
            {
                "time": "12:00 - 13:00",
                "subject": "PS",
                "room": "C-LH-205"
            },
            {
                "time": "15:00 - 16:00",
                "subject": "DS",
                "room": "C-LH-207"
            },
            {
                "time": "16:00 - 17:00",
                "subject": "DS(L)",
                "room": "C-WL-201"
            },
            {
                "time": "17:00 - 18:00",
                "subject": "DS(L)",
                "room": "C-WL-201"
            }
        ],
        "thursday": [
            {
                "time": "11:00 - 12:00",
                "subject": "DSD",
                "room": "C12_DEC(old)"
            },
            {
                "time": "12:00 - 13:00",
                "subject": "DSD(L)",
                "room": "C12_DEC(old)"
            },
            {
                "time": "13:00 - 14:00",
                "subject": "DSD(L)",
                "room": "C12_DEC(old)"
            },
            {
                "time": "15:00 - 16:00",
                "subject": "AFL",
                "room": "C-LH-302"
            },
            {
                "time": "16:00 - 17:00",
                "subject": "PS",
                "room": "C-LH-302"
            }
        ],
        "friday": [
            {
                "time": "11:00 - 12:00",
                "subject": "IND4",
                "room": "C-LH-204"
            },
            {
                "time": "12:00 - 13:00",
                "subject": "DSD",
                "room": "C-LH-204"
            },
            {
                "time": "13:00 - 14:00",
                "subject": "PS",
                "room": "C-LH-204"
            },
            {
                "time": "15:00 - 16:00",
                "subject": "DS",
                "room": "C-LH-202"
            },
            {
                "time": "16:00 - 17:00",
                "subject": "STW",
                "room": "C-LH-202"
            }
        ],
        "saturday": [
            {
                "time": "11:00 - 12:00",
                "subject": "DS",
                "room": "C-LH-201"
            },
            {
                "time": "12:00 - 13:00",
                "subject": "AFL",
                "room": "C-LH-201"
            }
        ]
    }
}