{
    "meta": {
        "section": "CSE-36",
        "type": "norm-class",
        "revision": "Revision 1.1",
        "effective-date": "Jul 24, 2024",
        "contributor": "PlanSync Admin :)",
        "isTimetableUpdating": false
    },
    "data": {
        "tuesday": [
            {
                "time": "09:00 - 10:00",
                "subject": "PS",
                "room": "ETC_CL-3"
            },
            {
                "time": "10:00 - 11:00",
                "subject": "DS",
                "room": "ETC_CL-3"
            },
            {
                "time": "11:00 - 12:00",
                "subject": "DSD",
                "room": "C12_VLSI"
            },
            {
                "time": "12:00 - 13:00",
                "subject": "DSD(L)",
                "room": "C12_VLSI"
            },
            {
                "time": "13:00 - 14:00",
                "subject": "DSD(L)",
                "room": "C12_VLSI"
            }
        ],
        "wednesday": [
            {
                "time": "08:00 - 09:00",
                "subject": "PS",
                "room": "C-LH-307"
            },
            {
                "time": "09:00 - 10:00",
                "subject": "AFL",
                "room": "C-LH-307"
            },
            {
                "time": "10:00 - 11:00",
                "subject": "DSD",
                "room": "C-LH-307"
            },
            {
                "time": "11:00 - 12:00",
                "subject": "DS",
                "room": "C-WL-102"
            },
            {
                "time": "12:00 - 13:00",
                "subject": "DS(L)",
                "room": "C-WL-102"
            },
            {
                "time": "13:00 - 14:00",
                "subject": "DS(L)",
                "room": "C-WL-102"
            }
        ],
        "thursday": [
            {
                "time": "09:00 - 10:00",
                "subject": "STW",
                "room": "C-LH-308"
            },
            {
                "time": "10:00 - 11:00",
                "subject": "DS",
                "room": "C-LH-308"
            },
            {
                "time": "11:00 - 12:00",
                "subject": "IND4",
                "room": "C-LH-402"
            },
            {
                "time": "12:00 - 13:00",
                "subject": "AFL",
                "room": "C-LH-402"
            },
            {
                "time": "13:00 - 14:00",
                "subject": "PS",
                "room": "C-LH-402"
            }
        ],
        "friday": [
            {
                "time": "09:00 - 10:00",
                "subject": "DSD",
                "room": "C-LH-308"
            },
            {
                "time": "10:00 - 11:00",
                "subject": "IND4",
                "room": "C-LH-308"
            },
            {
                "time": "11:00 - 12:00",
                "subject": "STW",
                "room": "C-LH-408"
            },
            {
                "time": "12:00 - 13:00",
                "subject": "AFL",
                "room": "C-LH-408"
            },
            {
                "time": "13:00 - 14:00",
                "subject": "PS",
                "room": "C-LH-408"
            }
        ],
        "saturday": [
            {
                "time": "09:00 - 10:00",
                "subject": "AFL",
                "room": "C-LH-206"
            },
            {
                "time": "10:00 - 11:00",
                "subject": "DS",
                "room": "C-LH-206"
            }
        ]
    }
}