{
    "meta": {
        "section": "CSSE-3",
        "type": "norm-class",
        "revision": "Revision 1.2",
        "effective-date": "Aug 14, 2024",
        "contributor": "PlanSync Admin :)",
        "isTimetableUpdating": false
    },
    "data": {
        "monday": [
            {
                "time": "11:00 - 12:00",
                "subject": "DS",
                "room": "A-LH-104"
            },
            {
                "time": "12:00 - 13:00",
                "subject": "COA",
                "room": "A-LH-104"
            },
            {
                "time": "13:00 - 14:00",
                "subject": "PS",
                "room": "A-LH-104"
            },
            {
                "time": "15:00 - 16:00",
                "subject": "DSD",
                "room": "A-LH-207"
            },
            {
                "time": "16:00 - 17:00",
                "subject": "OOPJ",
                "room": "A-LH-207"
            }
        ],
        "tuesday": [
            {
                "time": "12:00 - 13:00",
                "subject": "OOPJ",
                "room": "A-LH-010"
            },
            {
                "time": "15:00 - 16:00",
                "subject": "DSD",
                "room": "C12_VLSI"
            },
            {
                "time": "16:00 - 17:00",
                "subject": "DSD(L)",
                "room": "C12_VLSI"
            },
            {
                "time": "17:00 - 18:00",
                "subject": "DSD(L)",
                "room": "C12_VLSI"
            }
        ],
        "wednesday": [
            {
                "time": "11:00 - 12:00",
                "subject": "COA",
                "room": "A-LH-203"
            },
            {
                "time": "12:00 - 13:00",
                "subject": "DS(L)",
                "room": "A-DL-101"
            },
            {
                "time": "13:00 - 14:00",
                "subject": "DS(L)",
                "room": "A-DL-101"
            },
            {
                "time": "15:00 - 16:00",
                "subject": "DS",
                "room": "B-202"
            },
            {
                "time": "16:00 - 17:00",
                "subject": "PS",
                "room": "B-202"
            }
        ],
        "thursday": [
            {
                "time": "11:00 - 12:00",
                "subject": "PS",
                "room": "A-LH-105"
            },
            {
                "time": "12:00 - 13:00",
                "subject": "COA",
                "room": "A-LH-105"
            },
            {
                "time": "13:00 - 14:00",
                "subject": "DS",
                "room": "A-LH-105"
            },
            {
                "time": "15:00 - 16:00",
                "subject": "STW",
                "room": "A-LH-207"
            },
            {
                "time": "16:00 - 17:00",
                "subject": "OOPJ",
                "room": "A-LH-207"
            }
        ],
        "friday": [
            {
                "time": "08:00 - 09:00",
                "subject": "DSD",
                "room": "A-LH-205"
            },
            {
                "time": "09:00 - 10:00",
                "subject": "STW",
                "room": "A-LH-205"
            },
            {
                "time": "10:00 - 11:00",
                "subject": "PS",
                "room": "A-LH-205"
            },
            {
                "time": "14:00 - 15:00",
                "subject": "COA",
                "room": "B-206"
            },
            {
                "time": "15:00 - 16:00",
                "subject": "DS",
                "room": "B-206"
            },
            {
                "time": "16:00 - 17:00",
                "subject": "OOPJ(L)",
                "room": "WL-102"
            },
            {
                "time": "17:00 - 18:00",
                "subject": "OOPJ(L)",
                "room": "WL-102"
            }
        ]
    }
}