{
    "meta": {
        "section": "IT-1",
        "type": "norm-class",
        "revision": "Revision 1.4",
        "effective-date": "Aug 6, 2024",
        "contributor": "PlanSync Admin :)",
        "isTimetableUpdating": false
    },
    "data": {
        "monday": [
            {
                "time": "09:00 - 10:00",
                "subject": "COA",
                "room": "A-LH-201"
            },
            {
                "time": "10:00 - 11:00",
                "subject": "DS",
                "room": "A-LH-201"
            },
            {
                "time": "14:00 - 15:00",
                "subject": "CE",
                "room": "A-LH-103"
            },
            {
                "time": "15:00 - 16:00",
                "subject": "STW",
                "room": "A-LH-103"
            },
            {
                "time": "16:00 - 17:00",
                "subject": "OOPJ",
                "room": "A-LH-103"
            },
            {
                "time": "17:00 - 18:00",
                "subject": "PS",
                "room": "A-LH-103"
            }
        ],
        "wednesday": [
            {
                "time": "11:00 - 12:00",
                "subject": "CE",
                "room": "ETC_CE_LAB"
            },
            {
                "time": "12:00 - 13:00",
                "subject": "CE(L)",
                "room": "ETC_CE_LAB"
            },
            {
                "time": "13:00 - 14:00",
                "subject": "CE(L)",
                "room": "ETC_CE_LAB"
            },
            {
                "time": "15:00 - 16:00",
                "subject": "DS",
                "room": "B-203"
            },
            {
                "time": "16:00 - 17:00",
                "subject": "PS",
                "room": "B-203"
            },
            {
                "time": "17:00 - 18:00",
                "subject": "COA",
                "room": "B-203"
            }
        ],
        "thursday": [
            {
                "time": "11:00 - 12:00",
                "subject": "COA",
                "room": "A-DL-006"
            },
            {
                "time": "12:00 - 13:00",
                "subject": "DS(L)",
                "room": "A-DL-006"
            },
            {
                "time": "13:00 - 14:00",
                "subject": "DS(L)",
                "room": "A-DL-006"
            },
            {
                "time": "15:00 - 16:00",
                "subject": "STW",
                "room": "A-LH-103"
            },
            {
                "time": "16:00 - 17:00",
                "subject": "CE",
                "room": "A-LH-103"
            },
            {
                "time": "17:00 - 18:00",
                "subject": "PS",
                "room": "A-LH-103"
            }
        ],
        "friday": [
            {
                "time": "11:00 - 12:00",
                "subject": "COA",
                "room": "A-LH-207"
            },
            {
                "time": "12:00 - 13:00",
                "subject": "OOPJ",
                "room": "A-LH-207"
            },
            {
                "time": "13:00 - 14:00",
                "subject": "PS",
                "room": "A-LH-207"
            },
            {
                "time": "15:00 - 16:00",
                "subject": "DS",
                "room": "B-301"
            },
            {
                "time": "16:00 - 17:00",
                "subject": "OOPJ(L)",
                "room": "A-DL-106"
            },
            {
                "time": "17:00 - 18:00",
                "subject": "OOPJ(L)",
                "room": "A-DL-106"
            }
        ],
        "saturday": [
            {
                "time": "11:00 - 12:00",
                "subject": "DS",
                "room": "B-406"
            },
            {
                "time": "12:00 - 13:00",
                "subject": "OOPJ",
                "room": "B-406"
            }
        ]
    }
}